{
  "gitlab": "e144cde804c884ffb8dceef298aed01e2847fc100017ebbf73f2d7a531233020",
  "google": "2ce48c5a1b41c458b4280e6010dc2997c38325262d41a7cf3e207bf7b86f2dd4",
  "helm": "a2fa9407a299d5a6fd6b6d713f38b9d1134c631d7a7b3294af751dbf6e4c4e9c",
  "kubernetes": "077c6cd1ef1711b10f1c308bdee92fb9688e3d2909c93f42426f80e57496d0b2",
  "null": "c56285e7bd25a806bf86fcd4893edbe46e621a46e20fe24ef209b6fd0b7cf5fc"
}